,Id,Name,Price,Position,Quali_streak,Race_streak
0,D1,Hamilton,33.4,89.0,2,0
1,D2,Verstappen,25.1,55.0,2,0
2,D3,Bottas,23.5,34.0,2,0
3,D4,Perez,18.4,21.0,1,0
4,D5,Ricciardo,16.7,13.0,2,0
5,D6,Leclerc,17.4,5.0,2,0
6,D7,Vettel,15.4,0.8,0,0
7,D8,Alonso,15.2,0.7,0,0
8,D9,Sainz,14.3,2.0,0,0
9,D10,Stroll,13.6,1.0,2,0
10,D11,Norris,13.4,8.0,2,0
11,D12,Gasly,11.7,3.0,2,0
12,D13,Ocon,9.7,0.4,1,0
13,D14,Raikkonen,9.4,0.6,0,0
14,D15,Tsunoda,9.4,0.9,0,0
15,D16,Giovinazzi,7.8,0.5,0,0
16,D17,Latifi,6.5,0.2,0,0
17,D18,Russell,6.2,0.3,0,0
18,D19,Schumacher,5.7,0.1,0,0
19,D20,Mazepin,5.3,0.0,0,0
20,C1,Mercedes,37.8,89.0,2,0
21,C2,Red Bull,26.0,55.0,1,0
22,C3,McLaren,18.7,34.0,2,0
23,C4,Ferrari,18.7,21.0,0,0
24,C5,Aston Martin,16.9,13.0,0,0
25,C6,Alpine,15.1,8.0,0,0
26,C7,AlphaTauri,13.2,5.0,0,0
27,C8,Alfa Romeo,8.9,3.0,0,0
28,C9,Williams,6.3,2.0,0,0
29,C10,Haas,6.1,1.0,0,0
