,Id,Name,Price,Position,Quali_streak,Race_streak
0,D1,Hamilton,33.3,94.0,0,4
1,D2,Verstappen,25.4,80.0,0,4
2,D3,Bottas,23.1,47.0,0,2
3,D4,Perez,18.0,32.0,4,2
4,D5,Ricciardo,16.2,24.0,0,4
5,D6,Leclerc,18.3,40.0,0,4
6,D8,Alonso,14.8,5.0,0,0
7,D9,Sainz,14.6,20.0,3,1
8,D10,Stroll,13.4,5.0,0,0
9,D11,Norris,13.9,41.0,0,4
10,D12,Gasly,11.5,8.0,1,3
11,D13,Ocon,10.5,10.0,0,3
12,D15,Tsunoda,8.6,2.0,0,0
13,D7,Vettel,14.9,0.8,1,0
14,D14,Raikkonen,9.4,0.6,0,0
15,D16,Giovinazzi,7.8,0.5,1,0
16,D17,Latifi,6.4,0.2,0,0
17,D18,Russell,6.2,0.3,0,0
18,D19,Schumacher,5.9,0.1,0,0
19,D20,Mazepin,5.3,0.0,0,0
20,C1,Mercedes,37.5,141.0,2,2
21,C2,Red Bull,26.0,112.0,1,2
22,C3,McLaren,18.7,65.0,0,1
23,C4,Ferrari,19.6,60.0,0,1
24,C5,Aston Martin,16.4,5.0,0,0
25,C6,Alpine,15.2,15.0,0,0
26,C7,AlphaTauri,12.6,10.0,0,0
27,C8,Alfa Romeo,9.2,0.9,0,0
28,C9,Williams,6.3,0.8,0,0
29,C10,Haas,6.1,0.1,0,0
