,Id,Name,Price,Position,Quali_streak,Race_streak
0,D1,Hamilton,33.0,192.0,1,0
1,D2,Verstappen,25.7,186.0,1,1
2,D3,Bottas,23.0,108.0,1,0
3,D4,Perez,18.5,104.0,0,0
4,D5,Ricciardo,15.7,50.0,0,0
5,D6,Leclerc,17.7,80.0,2,0
6,D8,Alonso,15.0,36.0,1,1
7,D9,Sainz,14.5,80.0,0,4
8,D10,Stroll,13.3,18.0,0,0
9,D11,Norris,14.2,113.0,1,0
10,D12,Gasly,11.9,48.0,1,1
11,D13,Ocon,10.1,39.0,1,2
12,D15,Tsunoda,8.4,16.0,0,2
13,D7,Vettel,15.2,48.0,3,1
14,D16,Giovinazzi,8.0,1.0,0,0
15,D14,Raikkonen,9.3,1.0,0,0
16,D17,Latifi,6.4,4.0,0,1
17,D18,Russell,6.2,2.0,0,1
18,D19,Schumacher,5.8,0.1,0,0
19,D20,Mazepin,5.3,0.0,0,0
20,C1,Mercedes,37.1,300.0,2,0
21,C2,Red Bull,26.5,290.0,1,0
22,C3,McLaren,18.7,163.0,0,0
23,C4,Ferrari,18.9,160.0,0,0
24,C5,Aston Martin,16.5,66.0,0,0
25,C6,Alpine,15.1,75.0,1,2
26,C7,AlphaTauri,12.7,64.0,0,1
27,C8,Alfa Romeo,9.2,2.0,0,0
28,C9,Williams,6.3,6.0,0,1
29,C10,Haas,6.1,0.1,0,0
