,Id,Name,Price,Position,Quali_streak,Race_streak
0,D1,Hamilton,33.1,119.0,2,1
1,D2,Verstappen,25.5,131.0,2,1
2,D3,Bottas,23.0,59.0,2,1
3,D4,Perez,18.5,84.0,1,0
4,D5,Ricciardo,15.9,34.0,1,2
5,D6,Leclerc,17.9,52.0,2,0
6,D8,Alonso,14.8,17.0,2,2
7,D9,Sainz,14.6,42.0,0,0
8,D10,Stroll,13.3,10.0,1,1
9,D11,Norris,13.9,76.0,2,2
10,D12,Gasly,11.8,37.0,3,1
11,D13,Ocon,10.4,12.0,0,0
12,D15,Tsunoda,8.4,8.0,0,0
13,D7,Vettel,15.1,30.0,0,3
14,D16,Giovinazzi,8.0,1.0,0,0
15,D14,Raikkonen,9.3,1.0,0,0
16,D17,Latifi,6.4,0.2,0,0
17,D18,Russell,6.2,0.3,0,0
18,D19,Schumacher,5.8,0.1,0,0
19,D20,Mazepin,5.3,0.0,0,0
20,C1,Mercedes,37.3,178.0,1,1
21,C2,Red Bull,26.3,215.0,0,1
22,C3,McLaren,18.6,110.0,1,2
23,C4,Ferrari,19.1,94.0,2,0
24,C5,Aston Martin,16.4,40.0,0,1
25,C6,Alpine,15.3,29.0,0,0
26,C7,AlphaTauri,12.6,45.0,0,0
27,C8,Alfa Romeo,9.2,2.0,0,0
28,C9,Williams,6.3,0.8,0,0
29,C10,Haas,6.1,0.1,0,0
