,Id,Name,Price,Position,Quali_streak,Race_streak
0,D1,Hamilton,33.0,221.5,3,2
1,D2,Verstappen,25.7,224.5,3,3
2,D3,Bottas,23.0,123.0,3,1
3,D4,Perez,18.4,108.0,0,1
4,D5,Ricciardo,15.7,56.0,2,0
5,D6,Leclerc,17.7,92.0,1,2
6,D8,Alonso,15.2,46.0,1,1
7,D9,Sainz,14.5,89.5,1,1
8,D10,Stroll,13.3,18.0,0,0
9,D11,Norris,14.2,114.0,0,1
10,D12,Gasly,11.9,66.0,3,3
11,D13,Ocon,10.2,44.0,3,4
12,D15,Tsunoda,8.3,18.0,0,0
13,D7,Vettel,15.3,35.0,0,0
14,D16,Giovinazzi,8.0,1.0,1,0
15,D17,Latifi,6.4,7.0,0,0
16,D18,Russell,6.2,13.0,0,0
17,D19,Schumacher,5.8,0.1,0,0
18,D20,Mazepin,5.3,0.0,0,0
19,C1,Mercedes,37.1,344.5,1,1
20,C2,Red Bull,26.6,332.5,0,1
21,C3,McLaren,18.6,170.0,0,0
22,C4,Ferrari,18.8,181.5,1,2
23,C5,Aston Martin,16.5,53.0,0,0
24,C6,Alpine,15.2,90.0,1,1
25,C7,AlphaTauri,12.6,84.0,0,0
26,C8,Alfa Romeo,9.1,3.0,0,0
27,C9,Williams,6.3,20.0,0,0
28,C10,Haas,6.1,0.1,0,0
