,Id,Name,Price,Position,Quali_streak,Race_streak
0,D1,Hamilton,33.1,101.0,1,0
1,D2,Verstappen,25.5,105.0,1,0
2,D3,Bottas,23.0,47.0,1,0
3,D4,Perez,18.3,69.0,0,4
4,D5,Ricciardo,15.9,26.0,0,1
5,D6,Leclerc,18.2,52.0,1,1
6,D8,Alonso,14.7,13.0,1,1
7,D9,Sainz,14.7,42.0,4,3
8,D10,Stroll,13.3,9.0,0,0
9,D11,Norris,13.9,66.0,1,1
10,D12,Gasly,11.7,31.0,2,0
11,D13,Ocon,10.4,12.0,0,0
12,D15,Tsunoda,8.4,8.0,1,1
13,D7,Vettel,15.0,28.0,0,2
14,D16,Giovinazzi,8.0,1.0,0,0
15,D14,Raikkonen,9.3,1.0,0,1
16,D17,Latifi,6.4,0.2,0,0
17,D18,Russell,6.2,0.3,0,0
18,D19,Schumacher,5.8,0.1,0,0
19,D20,Mazepin,5.3,0.0,0,0
20,C1,Mercedes,37.3,148.0,0,0
21,C2,Red Bull,26.2,174.0,2,0
22,C3,McLaren,18.6,92.0,0,1
23,C4,Ferrari,19.6,94.0,1,1
24,C5,Aston Martin,16.4,37.0,0,0
25,C6,Alpine,15.1,25.0,0,0
26,C7,AlphaTauri,12.6,39.0,1,1
27,C8,Alfa Romeo,9.2,2.0,0,0
28,C9,Williams,6.3,0.8,0,0
29,C10,Haas,6.1,0.1,0,0
