,Previous_team_name,Is_possible,Changes_needed,Selling_income,Team,Constructor,Position_C,Position_D,Leavers,Stayers,Newcomers,Position,Cash_to_spend,New_cash_balance,New_team_value,New_total_budget,Selling_price,Selling_purchase_price,Previous_team,Previous_team_str,Place
0,Optimizer_2,0,5,-0.10000000000000853,Hamilton Verstappen Bottas Perez Ricciardo Mercedes,Mercedes,7.0,76.5,Red Bull Stroll Gasly Norris Vettel,Perez,Bottas Hamilton Verstappen Mercedes Ricciardo,83.5,81.5,-55.5,155.4,99.9,80.7,80.80000000000001,"['Perez', 'Vettel', 'Stroll', 'Norris', 'Gasly', 'Red Bull']",Perez Vettel Stroll Norris Gasly Red Bull,1
1,Optimizer_2,0,4,-0.20000000000000284,Hamilton Verstappen Bottas Perez Ricciardo Red Bull,Red Bull,6.3,76.8,Vettel Stroll Gasly Norris,Red Bull Perez,Verstappen Bottas Ricciardo Hamilton,83.1,55.5,-43.599999999999994,143.4,99.80000000000001,54.7,54.900000000000006,"['Perez', 'Vettel', 'Stroll', 'Norris', 'Gasly', 'Red Bull']",Perez Vettel Stroll Norris Gasly Red Bull,2
2,Optimizer_2,0,5,-0.10000000000000853,Hamilton Verstappen Bottas Perez Ricciardo McLaren,McLaren,5.6,77.1,Red Bull Stroll Gasly Norris Vettel,Perez,Bottas Hamilton Verstappen McLaren Ricciardo,82.7,81.5,-36.5,136.4,99.9,80.7,80.80000000000001,"['Perez', 'Vettel', 'Stroll', 'Norris', 'Gasly', 'Red Bull']",Perez Vettel Stroll Norris Gasly Red Bull,3
3,Optimizer_2,0,5,-0.10000000000000853,Hamilton Verstappen Bottas Perez Ricciardo Ferrari,Ferrari,4.8999999999999995,77.39999999999999,Red Bull Stroll Gasly Norris Vettel,Perez,Bottas Hamilton Verstappen Ferrari Ricciardo,82.3,81.5,-35.80000000000001,135.70000000000002,99.9,80.7,80.80000000000001,"['Perez', 'Vettel', 'Stroll', 'Norris', 'Gasly', 'Red Bull']",Perez Vettel Stroll Norris Gasly Red Bull,4
4,Optimizer_2,0,5,-0.10000000000000853,Hamilton Verstappen Bottas Perez Ricciardo Aston Martin,Aston Martin,4.199999999999999,77.7,Red Bull Stroll Gasly Norris Vettel,Perez,Bottas Hamilton Verstappen Aston Martin Ricciardo,81.9,81.5,-34.80000000000001,134.70000000000002,99.9,80.7,80.80000000000001,"['Perez', 'Vettel', 'Stroll', 'Norris', 'Gasly', 'Red Bull']",Perez Vettel Stroll Norris Gasly Red Bull,5
5,Optimizer_2,0,5,-0.10000000000000853,Hamilton Verstappen Bottas Perez Ricciardo Alpine,Alpine,3.5,78.0,Red Bull Stroll Gasly Norris Vettel,Perez,Bottas Hamilton Verstappen Alpine Ricciardo,81.5,81.5,-32.900000000000006,132.8,99.9,80.7,80.80000000000001,"['Perez', 'Vettel', 'Stroll', 'Norris', 'Gasly', 'Red Bull']",Perez Vettel Stroll Norris Gasly Red Bull,6
6,Optimizer_2,0,5,-0.10000000000000853,Hamilton Verstappen Bottas Perez Ricciardo AlphaTauri,AlphaTauri,2.8,78.3,Red Bull Stroll Gasly Norris Vettel,Perez,Bottas Hamilton AlphaTauri Verstappen Ricciardo,81.1,81.5,-30.5,130.4,99.9,80.7,80.80000000000001,"['Perez', 'Vettel', 'Stroll', 'Norris', 'Gasly', 'Red Bull']",Perez Vettel Stroll Norris Gasly Red Bull,7
7,Optimizer_2,0,5,-0.10000000000000853,Hamilton Verstappen Bottas Perez Ricciardo Alfa Romeo,Alfa Romeo,2.0999999999999996,78.6,Red Bull Stroll Gasly Norris Vettel,Perez,Bottas Hamilton Verstappen Alfa Romeo Ricciardo,80.7,81.5,-26.5,126.4,99.9,80.7,80.80000000000001,"['Perez', 'Vettel', 'Stroll', 'Norris', 'Gasly', 'Red Bull']",Perez Vettel Stroll Norris Gasly Red Bull,8
8,Optimizer_2,0,5,-0.10000000000000853,Hamilton Verstappen Bottas Perez Ricciardo Williams,Williams,1.4,78.89999999999999,Red Bull Stroll Gasly Norris Vettel,Perez,Bottas Hamilton Verstappen Williams Ricciardo,80.3,81.5,-23.900000000000006,123.80000000000001,99.9,80.7,80.80000000000001,"['Perez', 'Vettel', 'Stroll', 'Norris', 'Gasly', 'Red Bull']",Perez Vettel Stroll Norris Gasly Red Bull,9
9,Optimizer_2,0,5,-0.10000000000000853,Hamilton Verstappen Bottas Perez Ricciardo Haas,Haas,0.7,79.2,Red Bull Stroll Gasly Norris Vettel,Perez,Bottas Haas Hamilton Verstappen Ricciardo,79.9,81.5,-23.69999999999999,123.6,99.9,80.7,80.80000000000001,"['Perez', 'Vettel', 'Stroll', 'Norris', 'Gasly', 'Red Bull']",Perez Vettel Stroll Norris Gasly Red Bull,10
