,Id,Name,Price,Position,Quali_streak,Race_streak
0,D1,Hamilton,33.3,69.0,4,3
1,D2,Verstappen,25.3,61.0,4,3
2,D3,Bottas,23.3,32.0,4,1
3,D4,Perez,18.2,22.0,3,1
4,D5,Ricciardo,16.2,16.0,1,3
5,D6,Leclerc,18.0,28.0,4,3
6,D8,Alonso,15.0,5.0,1,2
7,D9,Sainz,14.3,14.0,2,0
8,D10,Stroll,13.5,5.0,0,0
9,D11,Norris,13.9,37.0,4,3
10,D12,Gasly,11.6,7.0,0,2
11,D13,Ocon,10.4,8.0,3,2
12,D15,Tsunoda,8.9,2.0,0,0
13,D7,Vettel,15.0,0.8,0,0
14,D14,Raikkonen,9.3,0.6,0,0
15,D16,Giovinazzi,7.8,0.5,0,0
16,D17,Latifi,6.4,0.2,0,0
17,D18,Russell,6.3,0.3,0,0
18,D19,Schumacher,5.8,0.1,0,0
19,D20,Mazepin,5.3,0.0,0,0
20,C1,Mercedes,37.6,101.0,1,1
21,C2,Red Bull,26.1,83.0,0,1
22,C3,McLaren,18.9,53.0,1,0
23,C4,Ferrari,18.7,42.0,2,0
24,C5,Aston Martin,16.5,5.0,0,0
25,C6,Alpine,15.3,13.0,1,2
26,C7,AlphaTauri,12.8,9.0,0,0
27,C8,Alfa Romeo,8.9,0.9,0,0
28,C9,Williams,6.3,0.8,0,0
29,C10,Haas,6.1,0.1,0,0
