,name,id,picked_team_id,picked_team_name,entrants_count_corrrected,team_rank,team_score,score_to_champion,team_rank_percentile_below
0,McLaren Official League,3,14178375,Optimizer 1,234135,24238,1319.0,293.0,0.9
1,Global League,11,14178375,Optimizer 1,918342,92698,1319.0,314.0,0.9
2,Poland Official Country League,218,14178375,Optimizer 1,18088,2264,1319.0,283.0,0.87
3,F1 Instagram Official League,239,14178375,Optimizer 1,248463,18454,1319.0,298.0,0.93
6,F1 Instagram Official League,239,14178787,Optimizer 2,248463,65808,1160.0,457.0,0.74
9,F1 Instagram Official League,239,14287482,Optimizer 3,248463,62875,1169.0,448.0,0.75
12,F1 Facebook Official League,240,14178375,Optimizer 1,74496,7055,1319.0,298.0,0.91
15,F1 Facebook Official League,240,14178787,Optimizer 2,74496,24386,1160.0,457.0,0.67
18,F1 Facebook Official League,240,14287482,Optimizer 3,74496,23347,1169.0,448.0,0.69
21,F1 Twitter Official League,241,14178375,Optimizer 1,87486,7928,1319.0,298.0,0.91
24,F1 Twitter Official League,241,14178787,Optimizer 2,87486,27760,1160.0,457.0,0.68
27,F1 Twitter Official League,241,14287482,Optimizer 3,87486,26542,1169.0,448.0,0.7
30,F1 YouTube Official League,242,14178375,Optimizer 1,107874,9767,1319.0,298.0,0.91
33,F1 YouTube Official League,242,14178787,Optimizer 2,107874,33990,1160.0,457.0,0.68
36,F1 YouTube Official League,242,14287482,Optimizer 3,107874,32543,1169.0,448.0,0.7
39,Single Entry,243,14178375,Optimizer 1,146704,3355,1319.0,302.0,0.98
40,Double Entry,244,14178375,Optimizer 1,153488,2841,1319.0,293.0,0.98
42,Double Entry,244,14178787,Optimizer 2,153488,8781,1160.0,452.0,0.94
44,Triple Entry,245,14178375,Optimizer 1,362856,5249,1319.0,293.0,0.99
47,Triple Entry,245,14178787,Optimizer 2,362856,17777,1160.0,452.0,0.95
50,Triple Entry,245,14287482,Optimizer 3,362856,17077,1169.0,443.0,0.95
53,3x Race,246,14178375,Optimizer 1,21666,14517,409.0,263.0,0.33
56,3x Race,246,14178787,Optimizer 2,21666,17839,352.0,320.0,0.18
59,3x Race,246,14287482,Optimizer 3,21666,15376,397.0,275.0,0.29
62,5x Races,247,14178375,Optimizer 1,78786,5157,903.0,225.0,0.93
65,5x Races,247,14178787,Optimizer 2,78786,10636,817.0,311.0,0.87
68,5x Races,247,14287482,Optimizer 3,78786,11831,799.0,329.0,0.85
71,F1PL,24168,14178375,Optimizer 1,3165,345,1319.0,275.0,0.89
74,F1PL,24168,14178787,Optimizer 2,3165,1051,1160.0,434.0,0.67
77,F1PL,24168,14287482,Optimizer 3,3165,1011,1169.0,425.0,0.68
80,Dziki Vol 3,25503,14178375,Optimizer 1,9,1,1319.0,0.0,0.89
83,Dziki Vol 3,25503,14178787,Optimizer 2,9,3,1160.0,159.0,0.67
86,Dziki Vol 3,25503,14287482,Optimizer 3,9,2,1169.0,150.0,0.78
89,Padokowe Świry 2,46887,14178375,Optimizer 1,6,1,1319.0,0.0,0.83
92,Padokowe Świry 2,46887,14178787,Optimizer 2,6,3,1160.0,159.0,0.5
95,Padokowe Świry 2,46887,14287482,Optimizer 3,6,2,1169.0,150.0,0.67
98,powrotroberta.pl,116368,14178375,Optimizer 1,535,136,1319.0,259.0,0.75
99,Padokowe Świry,127606,14178375,Optimizer 1,5,2,1319.0,154.0,0.6
100,Ścigałka Fantasy F1,178541,14178375,Optimizer 1,498,52,1319.0,271.0,0.9
103,Ścigałka Fantasy F1,178541,14178787,Optimizer 2,498,165,1160.0,430.0,0.67
106,Ścigałka Fantasy F1,178541,14287482,Optimizer 3,498,162,1169.0,421.0,0.67
109,Ricciardo Fanclub Fantasy PL,183860,14178375,Optimizer 1,8,1,1319.0,0.0,0.88
110,Single Entry,256671,14287482,Optimizer 3,146704,10878,1023.0,407.0,0.93
111,Double Entry,256674,14178375,Optimizer 1,153488,1990,1178.0,252.0,0.99
113,Double Entry,256674,14178787,Optimizer 2,153488,8877,1007.0,423.0,0.94
115,Triple Entry,256678,14178375,Optimizer 1,362856,3848,1178.0,252.0,0.99
118,Triple Entry,256678,14178787,Optimizer 2,362856,18961,1007.0,423.0,0.95
121,Triple Entry,256678,14287482,Optimizer 3,362856,17343,1023.0,407.0,0.95
124,Single Entry,319661,14178375,Optimizer 1,146704,254,1078.0,186.0,1.0
125,Double Entry,319663,14178375,Optimizer 1,153488,228,1078.0,186.0,1.0
127,Double Entry,319663,14178787,Optimizer 2,153488,1429,948.0,316.0,0.99
129,Triple Entry,319665,14178375,Optimizer 1,362856,351,1078.0,186.0,1.0
132,Triple Entry,319665,14178787,Optimizer 2,362856,2453,948.0,316.0,0.99
135,Triple Entry,319665,14287482,Optimizer 3,362856,3229,921.0,343.0,0.99
138,Iberian Double Header,326836,14178375,Optimizer 1,39471,10232,324.0,140.0,0.74
141,Iberian Double Header,326836,14178787,Optimizer 2,39471,15202,302.0,162.0,0.61
144,Iberian Double Header,326836,14287482,Optimizer 3,39471,19922,277.0,187.0,0.5
147,3x Races,326842,14178375,Optimizer 1,10200,227,662.0,112.0,0.98
150,3x Races,326842,14178787,Optimizer 2,10200,720,605.0,169.0,0.93
153,3x Races,326842,14287482,Optimizer 3,10200,1628,551.0,223.0,0.84
156,5x Races,326844,14178375,Optimizer 1,78786,180,1078.0,186.0,1.0
159,5x Races,326844,14178787,Optimizer 2,78786,993,948.0,316.0,0.99
162,5x Races,326844,14287482,Optimizer 3,78786,1260,921.0,343.0,0.98
165,Single Entry,342432,14178375,Optimizer 1,146704,120,910.0,176.0,1.0
166,Double Entry,342436,14178375,Optimizer 1,153488,120,910.0,176.0,1.0
168,Double Entry,342436,14178787,Optimizer 2,153488,623,808.0,278.0,1.0
170,Triple Entry,342438,14178375,Optimizer 1,362856,193,910.0,176.0,1.0
173,Triple Entry,342438,14178787,Optimizer 2,362856,1082,808.0,278.0,1.0
176,Triple Entry,342438,14287482,Optimizer 3,362856,1610,772.0,314.0,1.0
179,3x Races,342442,14178375,Optimizer 1,10200,187,685.0,146.0,0.98
182,3x Races,342442,14178787,Optimizer 2,10200,1067,595.0,236.0,0.9
185,3x Races,342442,14287482,Optimizer 3,10200,1883,553.0,278.0,0.82
188,5x Races,342446,14178375,Optimizer 1,78786,151,910.0,176.0,1.0
191,5x Races,342446,14178787,Optimizer 2,78786,746,808.0,278.0,0.99
194,5x Races,342446,14287482,Optimizer 3,78786,1111,772.0,314.0,0.99
197,Single Entry,355569,14178375,Optimizer 1,146704,112,754.0,151.0,1.0
198,Double Entry,355570,14178375,Optimizer 1,153488,134,754.0,151.0,1.0
200,Double Entry,355570,14178787,Optimizer 2,153488,755,646.0,259.0,1.0
202,Triple Entry,355572,14178375,Optimizer 1,362856,180,754.0,151.0,1.0
205,Triple Entry,355572,14178787,Optimizer 2,362856,1119,646.0,259.0,1.0
208,Triple Entry,355572,14287482,Optimizer 3,362856,1146,644.0,261.0,1.0
211,Street Circuit League,355580,14178375,Optimizer 1,40146,1031,529.0,149.0,0.97
214,Street Circuit League,355580,14178787,Optimizer 2,40146,6132,433.0,245.0,0.85
217,Street Circuit League,355580,14287482,Optimizer 3,40146,6948,425.0,253.0,0.83
220,Single Entry,363418,14178375,Optimizer 1,146704,579,416.0,163.0,1.0
221,Double Entry,363419,14178375,Optimizer 1,153488,571,416.0,163.0,1.0
223,Double Entry,363419,14178787,Optimizer 2,153488,1890,343.0,236.0,0.99
225,Triple Entry,363420,14178375,Optimizer 1,362856,876,416.0,163.0,1.0
228,Triple Entry,363420,14178787,Optimizer 2,362856,3065,343.0,236.0,0.99
231,Triple Entry,363420,14287482,Optimizer 3,362856,2086,370.0,209.0,0.99
234,Single Entry,371987,14178375,Optimizer 1,146704,618,225.0,120.0,1.0
235,Double Entry,371988,14178375,Optimizer 1,153488,564,225.0,128.0,1.0
237,Double Entry,371988,14178787,Optimizer 2,153488,782,213.0,140.0,0.99
239,Triple Entry,371990,14178375,Optimizer 1,362856,821,225.0,120.0,1.0
242,Triple Entry,371990,14178787,Optimizer 2,362856,1165,213.0,132.0,1.0
245,Triple Entry,371990,14287482,Optimizer 3,362856,1010,219.0,126.0,1.0
