,Id,Name,Price,Position
0,D1,Hamilton,33.5,89.0
1,D2,Verstappen,25.0,55.0
2,D3,Bottas,23.5,34.0
3,D4,Perez,18.3,21.0
4,D5,Ricciardo,17.0,13.0
5,D6,Leclerc,17.2,5.0
6,D7,Vettel,15.7,0.8
7,D8,Alonso,15.4,0.7
8,D9,Sainz,14.4,2.0
9,D10,Stroll,13.8,1.0
10,D11,Norris,13.3,8.0
11,D12,Gasly,11.8,3.0
12,D13,Ocon,9.9,0.4
13,D14,Raikkonen,9.5,0.6
14,D15,Tsunoda,9.2,0.9
15,D16,Giovinazzi,7.9,0.5
16,D17,Latifi,6.5,0.2
17,D18,Russell,6.2,0.3
18,D19,Schumacher,5.8,0.1
19,D20,Mazepin,5.4,0.0
20,C1,Mercedes,37.9,10.0
21,C2,Red Bull,26.0,9.0
22,C3,McLaren,18.9,8.0
23,C4,Ferrari,18.3,7.0
24,C5,Aston Martin,17.2,6.0
25,C6,Alpine,15.2,5.0
26,C7,AlphaTauri,12.9,4.0
27,C8,Alfa Romeo,8.9,3.0
28,C9,Williams,6.3,2.0
29,C10,Haas,6.1,1.0
