,Id,Name,Price,Position,Quali_streak,Race_streak
0,D1,Hamilton,33.0,177.0,0,4
1,D2,Verstappen,25.7,185.0,0,0
2,D3,Bottas,23.0,108.0,0,4
3,D4,Perez,18.7,104.0,4,0
4,D5,Ricciardo,15.8,50.0,1,2
5,D6,Leclerc,17.6,80.0,1,3
6,D8,Alonso,14.9,26.0,0,0
7,D9,Sainz,14.4,68.0,1,3
8,D10,Stroll,13.3,18.0,0,1
9,D11,Norris,14.2,113.0,0,0
10,D12,Gasly,11.9,39.0,0,0
11,D13,Ocon,10.0,14.0,0,1
12,D15,Tsunoda,8.5,10.0,0,1
13,D7,Vettel,15.2,30.0,2,0
14,D16,Giovinazzi,8.1,1.0,0,0
15,D14,Raikkonen,9.3,1.0,0,0
16,D17,Latifi,6.4,0.2,0,0
17,D18,Russell,6.2,0.3,2,0
18,D19,Schumacher,5.8,0.1,0,0
19,D20,Mazepin,5.3,0.0,0,0
20,C1,Mercedes,37.1,285.0,1,1
21,C2,Red Bull,26.7,289.0,0,0
22,C3,McLaren,18.6,163.0,1,2
23,C4,Ferrari,18.7,148.0,1,0
24,C5,Aston Martin,16.4,48.0,0,0
25,C6,Alpine,15.1,40.0,0,1
26,C7,AlphaTauri,12.7,49.0,0,0
27,C8,Alfa Romeo,9.2,2.0,0,0
28,C9,Williams,6.3,0.8,0,0
29,C10,Haas,6.1,0.1,0,0
