,Id,Name,Price,Position,Quali_streak,Race_streak
0,D1,Hamilton,33.3,101.0,0,0
1,D2,Verstappen,25.4,105.0,0,0
2,D3,Bottas,23.1,47.0,0,0
3,D4,Perez,18.0,44.0,4,3
4,D5,Ricciardo,16.1,24.0,0,0
5,D6,Leclerc,18.3,40.0,0,0
6,D8,Alonso,14.8,5.0,0,0
7,D9,Sainz,14.7,38.0,3,2
8,D10,Stroll,13.4,9.0,0,1
9,D11,Norris,13.9,56.0,0,0
10,D12,Gasly,11.5,16.0,1,4
11,D13,Ocon,10.5,12.0,0,4
12,D15,Tsunoda,8.5,2.0,0,0
13,D7,Vettel,14.9,10.0,1,1
14,D16,Giovinazzi,7.9,1.0,1,1
15,D14,Raikkonen,9.4,0.6,0,0
16,D17,Latifi,6.4,0.2,0,0
17,D18,Russell,6.2,0.3,0,0
18,D19,Schumacher,5.8,0.1,0,0
19,D20,Mazepin,5.3,0.0,0,0
20,C1,Mercedes,37.4,148.0,2,0
21,C2,Red Bull,26.0,149.0,1,0
22,C3,McLaren,18.7,80.0,0,0
23,C4,Ferrari,19.6,78.0,0,0
24,C5,Aston Martin,16.4,19.0,0,1
25,C6,Alpine,15.2,17.0,0,0
26,C7,AlphaTauri,12.6,18.0,0,0
27,C8,Alfa Romeo,9.2,1.0,0,0
28,C9,Williams,6.3,0.8,0,0
29,C10,Haas,6.1,0.1,0,0
