,Id,Name,Price,Position
0,D1,Hamilton,33.5,20
1,D2,Verstappen,25.0,19
2,D3,Bottas,23.5,18
3,D4,Perez,18.3,17
4,D5,Ricciardo,17.1,16
5,D6,Leclerc,17.1,14
6,D7,Vettel,15.8,9
7,D8,Alonso,15.4,8
8,D9,Sainz,14.4,12
9,D10,Stroll,13.8,11
10,D11,Norris,13.3,15
11,D12,Gasly,11.8,13
12,D13,Ocon,9.9,5
13,D14,Raikkonen,9.6,7
14,D15,Tsunoda,9.1,10
15,D16,Giovinazzi,7.9,6
16,D17,Latifi,6.5,3
17,D18,Russell,6.2,4
18,D19,Schumacher,5.8,2
19,D20,Mazepin,5.4,1
20,C1,Mercedes,37.9,10
21,C2,Red Bull,26.0,9
22,C3,McLaren,18.9,8
23,C4,Ferrari,18.2,7
24,C5,Aston Martin,17.2,6
25,C6,Alpine,15.3,5
26,C7,AlphaTauri,12.9,4
27,C8,Alfa Romeo,8.9,3
28,C9,Williams,6.3,2
29,C10,Haas,6.1,1
