,Id,Name,Price,Position
0,D1,Hamilton,33.0,221.5
1,D2,Verstappen,25.7,226.5
2,D3,Bottas,23.0,141
3,D4,Perez,18.4,118
4,D5,Ricciardo,15.7,83
5,D6,Leclerc,17.7,104
6,D8,Alonso,15.2,50
7,D9,Sainz,14.5,97.5
8,D10,Stroll,13.3,24
9,D11,Norris,14.2,132
10,D12,Gasly,11.9,66
11,D13,Ocon,10.3,45
12,D15,Tsunoda,8.3,18
13,D7,Vettel,15.3,35
14,D16,Giovinazzi,8.0,1
15,D17,Latifi,6.4,7
16,D18,Russell,6.2,15
17,D19,Schumacher,5.8,0.1
18,D20,Mazepin,5.3,0.0
